{
    "title": "Really Huge Dashboard",
    "id": "bigBoard1",
    "polling": 10,
    "widgets": [
      {
        "id": "aba-1",
        "name": "aba-dummy-widget",
        "title": "Dummy 1",
        "col": 5,
        "row": 0,
        "height": 3,
        "width": 2,
        "path": "../aba-dummy-widget/aba-dummy-widget.html"
      },
      {
        "name": "aba-erpaction-widget",
        "description": "This widget must be placed within an abas-ERP menu widget. It opens the native abas-ERP UI or the abas-ERP Web UI depending on what is configured for the tenant. Every abas-ERP command can be executed. Commands are executed with the access permissions of the logged in user.",
        "author": "",
        "label": "abas-ERP menu button",
        "path": "../aba-erpaction-widget/aba-erpaction-widget.html",
        "parent": "aba-grid-widget",
        "drop": [
          "aba-grid-widget"
        ],
        "attr": {
          "titleBackgroundColor": "#666666",
          "titleColor": "#ffffff",
          "backgroundColor": "#3f84ba",
          "hint": "",
          "erpcommand": "{'contextKey':'global/clientSelect', 'path':'selected.identifier', 'default': '(Customer)'}{'contextKey':'global/clientSelect', 'path':'selected.id', 'default':'(0,0,0)'}<zeigen>",
          "icon": {
            "text": "",
            "value": ""
          }
        },
        "title": "Can do everything",
        "width": 1,
        "height": 1,
        "col": 3,
        "row": 0,
        "id": "widget_action_1"
      },
      {
        "name": "aba-erpaction-widget",
        "description": "This widget must be placed within an abas-ERP menu widget. It opens the native abas-ERP UI or the abas-ERP Web UI depending on what is configured for the tenant. Every abas-ERP command can be executed. Commands are executed with the access permissions of the logged in user.",
        "author": "",
        "label": "abas-ERP menu button",
        "path": "../aba-erpaction-widget/aba-erpaction-widget.html",
        "parent": "aba-grid-widget",
        "drop": [
          "aba-grid-widget"
        ],
        "attr": {
          "titleBackgroundColor": "#666666",
          "titleColor": "#ffffff",
          "backgroundColor": "#bbbbbb",
          "hint": "",
          "erpcommand": "{'contextKey':'global/clientSelect', 'path':'selected.identifier', 'default': '(Customer)'}{'contextKey':'global/clientSelect', 'path':'selected.id', 'default':'(0,0,0)'}<zeigen>",
          "icon": {
            "text": "",
            "value": ""
          }
        },
        "title": "Another Button",
        "width": 1,
        "height": 1,
        "col": 4,
        "row": 0,
        "id": "widget_action_2"
      },
      {
        "name": "aba-erpaction-widget",
        "description": "This widget must be placed within an abas-ERP menu widget. It opens the native abas-ERP UI or the abas-ERP Web UI depending on what is configured for the tenant. Every abas-ERP command can be executed. Commands are executed with the access permissions of the logged in user.",
        "author": "",
        "label": "abas-ERP menu button",
        "path": "../aba-erpaction-widget/aba-erpaction-widget.html",
        "parent": "aba-grid-widget",
        "drop": [
          "aba-grid-widget"
        ],
        "attr": {
          "titleBackgroundColor": "#666666",
          "titleColor": "#ffffff",
          "backgroundColor": "#5da2df",
          "hint": "",
          "erpcommand": "{'contextKey':'global/clientSelect', 'path':'selected.identifier', 'default': '(Customer)'}{'contextKey':'global/clientSelect', 'path':'selected.id', 'default':'(0,0,0)'}<zeigen>",
          "icon": {
            "text": "",
            "value": ""
          }
        },
        "title": "Hello World",
        "width": 2,
        "height": 1,
        "col": 3,
        "row": 1,
        "id": "widget_action_3"
      },
      {
        "name": "aba-erpaction-widget",
        "description": "This widget must be placed within an abas-ERP menu widget. It opens the native abas-ERP UI or the abas-ERP Web UI depending on what is configured for the tenant. Every abas-ERP command can be executed. Commands are executed with the access permissions of the logged in user.",
        "author": "",
        "label": "abas-ERP menu button",
        "path": "../aba-erpaction-widget/aba-erpaction-widget.html",
        "parent": "aba-grid-widget",
        "drop": [
          "aba-grid-widget"
        ],
        "attr": {
          "titleBackgroundColor": "#5da2df",
          "titleColor": "#ffffff",
          "backgroundColor": "#ffffff",
          "hint": "",
          "erpcommand": "{'contextKey':'global/clientSelect', 'path':'selected.identifier', 'default': '(Customer)'}{'contextKey':'global/clientSelect', 'path':'selected.id', 'default':'(0,0,0)'}<zeigen>",
          "icon": {
            "text": "businessman",
            "value": "businessman.svg"
          }
        },
        "title": "Business Action Button",
        "width": 1,
        "height": 1,
        "col": 3,
        "row": 2,
        "id": "widget_cb34baee-774f-2721-bf49-e692c77d1f2d"
      },
      {
        "name": "aba-chart-widget",
        "author": "",
        "label": "C3 Data chart",
        "description": "Visualize arbitrary abas-ERP data. This widgets utilizes the c3 chart library (c3js.org) for rendering charts. When the widget loads, it will request chart description and data from a configured URL.",
        "path": "../aba-chart-widget/aba-chart-widget.html",
        "drop": [
          "container"
        ],
        "attr": {
          "url": "../aba-chart-widget/demo/example-chart.json"
        },
        "title": "Beautiful data",
        "width": 3,
        "height": 3,
        "col": 0,
        "row": 0,
        "id": "widget_56d5ecd4-10bc-1743-ba8a-20329b29721e"
      },
      {
        "name": "aba-table-widget",
        "author": "",
        "label": "Data table",
        "path": "../aba-table-widget/aba-table-widget.html",
        "drop": [
          "container"
        ],
        "attr": {
          "url": "../aba-table-widget/demo/example-tablefilter.json"
        },
        "title": "",
        "description": "Display arbitrary data from abas-ERP within a table. ...Write more detailed information here. Features etc...",
        "width": 9,
        "height": 3,
        "col": 0,
        "row": 3,
        "id": "widget_e34dc906-97a1-9351-8669-7cc00a2df2f9"
      },
      {
        "name": "aba-personalnotes-widget",
        "author": "abas Software GmbH",
        "label": "Personal Notes",
        "preview": "../aba-personalnotes-widget/assets/preview.png",
        "path": "../aba-personalnotes-widget/aba-personalnotes-widget.html",
        "drop": [
          "container"
        ],
        "attr": {},
        "title": "",
        "description": "A simple and easy to use note-taking widget",
        "width": 4,
        "height": 2,
        "col": 7,
        "row": 0,
        "id": "widget_9f2815fd-c3d6-e215-8f17-1693922007d2"
      }
    ]
  }